Simple Linear Regression III: Inference
…
```r
library(infer)
ump %>%
  specify(change ~ unemp) %>%
  hypothesize(null = "independence") %>%
  generate(1, type = "permute")
```

--

```
## Response: change (numeric)
## Explanatory: unemp (numeric)
## Null Hypothesis: independence
## # A tibble: 27 x 3
## # Groups:   replicate [1]
##    change unemp replicate
##     <dbl> <dbl>     <int>
##  1 -22.3  11.6          1
##  2   3.62  4.3          1
##  3 -25     3.29         1
##  4  -4.57  5.86         1
##  5 -10.3   6.63         1
##  6  -4.28  3.38         1
##  7 -24.2   6.93         1
##  8 -12.9   4.02         1
##  9  -8.14  8.94         1
## 10 -12.3   4.7          1
## # … with 17 more rows
```
…
```r
shuffle2 <- ump %>%
  specify(change ~ unemp) %>%
  hypothesize(null = "independence") %>%
  generate(1, type = "permute")
shuffle2
```

```
## Response: change (numeric)
## Explanatory: unemp (numeric)
## Null Hypothesis: independence
## # A tibble: 27 x 3
## # Groups:   replicate [1]
##    change unemp replicate
##     <dbl> <dbl>     <int>
##  1 -19.3  11.6          1
##  2  -5.14  4.3          1
##  3 -12.9   3.29         1
##  4   3.62  5.86         1
##  5 -21.0   6.63         1
##  6 -16.3   3.38         1
##  7  -4.57  6.93         1
##  8  -4.28  4.02         1
##  9 -12.3   8.94         1
## 10 -25.5   4.7          1
## # … with 17 more rows
```
…
```r
null <- ump %>%
  specify(change ~ unemp) %>%
  hypothesize(null = "independence") %>%
  generate(reps = 500, type = "permute") %>%
  calculate(stat = "slope")
null
```

--

```
## # A tibble: 500 x 2
##    replicate     stat
##        <int>    <dbl>
##  1         1 -0.391  
##  2         2  1.25   
##  3         3  0.622  
##  4         4  1.99   
##  5         5 -0.876  
##  6         6 -0.239  
##  7         7 -0.00730
##  8         8 -0.479  
##  9         9  1.04   
## 10        10 -0.861  
## # … with 490 more rows
```
…
