Geometry of Multiple Linear Regression
…
<img src="figs/zagat.png" width="650" style="display: block; margin: auto;" />

---
class:small
# Ex: Restaurants in NYC 
--

```r
nyc
```

```
## # A tibble: 168 x 7
##     Case Restaurant          Price  Food Decor Service  East
##    <dbl> <chr>               <dbl> <dbl> <dbl>   <dbl> <dbl>
##  1     1 Daniella Ristorante    43    22    18      20     0
##  2     2 Tello's Ristorante     32    20    19      19     0
##  3     3 Biricchino             34    21    13      18     0
##  4     4 Bottino                41    20    20      17     0
##  5     5 Da Umberto             54    24    19      21     0
##  6     6 Le Madri               52    22    22      21     0
##  7     7 Le Zie                 34    22    16      21     0
##  8     8 Pasticcio              34    20    18      21     1
##  9     9 Belluno                39    22    19      22     1
## 10    10 Cinque Terre           44    21    17      19     1
## # … with 158 more rows
```
…
Does the price depend on where the restaurant is located in Manhattan?

`$$Price \sim Food + Decor + East$$`
--

.tiny[

```r
nyc
```

```
## # A tibble: 168 x 7
##     Case Restaurant          Price  Food Decor Service  East
##    <dbl> <chr>               <dbl> <dbl> <dbl>   <dbl> <dbl>
##  1     1 Daniella Ristorante    43    22    18      20     0
##  2     2 Tello's Ristorante     32    20    19      19     0
##  3     3 Biricchino             34    21    13      18     0
##  4     4 Bottino                41    20    20      17     0
##  5     5 Da Umberto             54    24    19      21     0
##  6     6 Le Madri               52    22    22      21     0
##  7     7 Le Zie                 34    22    16      21     0
##  8     8 Pasticcio              34    20    18      21     1
##  9     9 Belluno                39    22    19      22     1
## 10    10 Cinque Terre           44    21    17      19     1
## # … with 158 more rows
```
…
