Confidence Intervals for p
…
---
# Bootstrapping p-hat I

```r
pew %>%
  specify(response = closed, success = "yes") %>%
  generate(reps = 100, type = "bootstrap") 
```

--

```
## Response: closed (factor)
## # A tibble: 494,700 x 2
## # Groups:   replicate [100]
##    replicate closed
##        <int> <fct> 
##  1         1 no    
##  2         1 yes   
##  3         1 no    
##  4         1 yes   
##  5         1 yes   
##  6         1 yes   
##  7         1 no    
##  8         1 no    
##  9         1 no    
## 10         1 no    
## # … with 494,690 more rows
```

---
# Bootstrapping p-hat II

```r
pew %>%
  specify(response = closed, success = "yes") %>%
  generate(reps = 100, type = "bootstrap") %>%
* calculate(stat = "prop")
```

--

```
## # A tibble: 100 x 2
##    replicate  stat
##        <int> <dbl>
##  1         1 0.643
##  2         2 0.629
##  3         3 0.635
##  4         4 0.650
##  5         5 0.642
##  6         6 0.639
##  7         7 0.634
##  8         8 0.627
##  9         9 0.628
## 10        10 0.646
## # … with 90 more rows
```
…
