Confidence Intervals for Differences in Proportions
…
```r
(boot <- pew %>%
  specify(response = lazy, 
          explanatory = year, 
          success = "yes") %>%
* generate(reps = 500,
*          type = "bootstrap") %>%
  calculate(stat = "diff in props",
            order = c(2019, 2016)))
```

--

```
## # A tibble: 500 x 2
##    replicate    stat
##        <int>   <dbl>
##  1         1 0.0255 
##  2         2 0.00809
##  3         3 0.0135 
##  4         4 0.0354 
##  5         5 0.0112 
##  6         6 0.0110 
##  7         7 0.0112 
##  8         8 0.0231 
##  9         9 0.0124 
## 10        10 0.0125 
## # … with 490 more rows
```
…
