ANOVA
…
---
# Sampling dist for F via Randomization
--

```r
wolf %>%
  specify(response = HCB, explanatory = Depth) %>%
  hypothesize(null = "independence") %>%
  generate(reps = 1000, type = "permute") %>%
  calculate(stat = "F")
```

```
## # A tibble: 1,000 x 2
##    replicate  stat
##        <int> <dbl>
##  1         1 0.228
##  2         2 1.83 
##  3         3 0.672
##  4         4 0.237
##  5         5 0.501
##  6         6 1.67 
##  7         7 1.53 
##  8         8 1.03 
##  9         9 0.228
## 10        10 2.03 
## # … with 990 more rows
```
…
