Inference for Means II
…
```r
d %>%
  specify(IQ ~ sex) %>%
  hypothesize(null = "independence") %>%
  generate(reps = 500, type = "permute") %>%
  calculate(stat = "diff in means",
            order = c("male", "female"))
```

--

```
## # A tibble: 500 x 2
##    replicate   stat
##        <int>  <dbl>
##  1         1  0.194
##  2         2  0.417
##  3         3 -0.139
##  4         4  0.194
##  5         5 -0.583
##  6         6 -0.361
##  7         7 -1.14 
##  8         8  0.472
##  9         9  0.361
## 10        10  0.694
## # … with 490 more rows
```
…
