More with Chi-squared
…
--

.tiny[

```
## Response: ethnicity (factor)
## Null Hypothesis: point
## # A tibble: 177,000 x 2
## # Groups:   replicate [500]
##    ethnicity replicate
##    <fct>     <fct>    
##  1 white     1        
##  2 white     1        
##  3 white     1        
##  4 asian     1        
##  5 white     1        
##  6 white     1        
##  7 white     1        
##  8 black     1        
##  9 white     1        
## 10 white     1        
## # … with 176,990 more rows
```
…
--

.tiny[

```
## # A tibble: 500 x 2
##    replicate   stat
##    <fct>      <dbl>
##  1 1          0.395
##  2 2          0.986
##  3 3          5.90 
##  4 4          1.16 
##  5 5          0.676
##  6 6          3.77 
##  7 7          7.53 
##  8 8          6.80 
##  9 9          5.02 
## 10 10        12.7  
## # … with 490 more rows
```
…
